814315 169694 509
474062 147311 449
133864 401584 443
172387 198812 365
301160 910074 525
926771 398824 525
34318 320418 443
553249 667682 509
900843 694496 525
849861 890682 445
119864 488281 449
197084 424553 449
836355 911699 525
840021 860888 419
893094 809623 525
607149 536053 452
384034 134772 443
919017 925463 445
836356 232339 509
21674 122571 354
562562 961914 525
151895 746447 509
948929 727818 525
57456 561326 470
943616 627516 525
266033 772608 509
404511 479369 449
948462 691536 525
225358 699259 509
424189 659054 509
523551 441873 470
521617 5643 470
441904 270999 449
990594 579426 525
211928 824684 509
562916 825594 509
529704 596631 452
502103 606760 470
759222 49294 509
138160 88624 354
921637 25676 525
311905 151749 443
317446 571141 470
610345 235398 470
332695 752494 509
945355 721065 525
827340 178582 509
914055 657761 525
745194 891633 525
632109 257640 509
967947 764467 525
482009 988444 525
887825 810870 525
952533 204866 525
90582 746245 509
122028 978678 525
688729 923772 525
479424 930755 525
608551 154816 470
357800 17644 443
802915 967195 525
526610 163458 470
450394 150349 449
490859 225914 449
237439 439941 449
18841 936174 525
267160 654434 509
534309 244301 470
975781 794750 525
147756 79984 375
186025 957638 525
4106 976044 525
80660 671420 509
77962 878843 525
465570 186653 449
925474 176690 525
552098 259739 470
787928 389194 509
967617 542840 525
191448 506411 449
718431 596016 509
38012 716717 509
728533 779856 468
93483 307673 443
897847 746950 525
343517 494655 449
491008 828090 509
575180 554434 421
47332 581758 470
759847 628495 504
330491 364021 441
920304 934001 476
202479 16967 383
581279 146589 470
889835 523246 525
824790 591511 509
454201 3128 449
646688 854900 525
276951 816417 509
547397 252832 470
278439 315079 389
256808 842268 525
307304 795324 509
921382 402529 525
980986 960095 458
435828 821302 509
66199 36156 340
927505 811928 525
51591 632966 509
195786 275586 443
455576 365513 449
141615 751147 509
83923 107814 354
102173 698888 509
444081 51005 449
584965 297479 470
978978 12744 525
369276 857671 525
246214 185215 443
844088 149490 525
892733 357601 525
901545 202510 525
863195 995890 507
372240 582537 470
359182 274007 441
28838 138612 354
158820 372496 443
597479 188789 470
397292 995546 525
202113 161918 365
506051 377065 449
324161 673902 509
133961 440815 449
451100 334716 449
806560 702312 504
96942 191847 383
899205 961635 507
638593 750595 504
138463 514908 470
807585 744168 468
999898 356923 525
593514 710687 509
423124 834199 509
164184 735565 509
324967 650889 509
544820 137982 470
281277 859545 525
38686 206775 383
51491 483419 449
522035 964238 525
27760 909389 525
106294 53824 354
625921 546281 452
602652 992526 525
161587 540072 470
998365 128160 525
16530 855981 525
25941 618092 470
627507 363380 509
925490 372041 525
982348 796704 525
168326 448756 449
111031 332904 443
171301 919754 525
176674 366761 443
386277 740062 509
248656 690672 509
94011 908068 525
887804 895075 401
989825 76259 525
59631 898214 525
766725 800354 468
902909 131722 525
727376 438625 509
794771 160539 509
549630 355140 470
380667 239472 441
958701 59189 525
876999 110897 525
847246 221200 525
70134 232809 443
962060 221481 525
265119 717819 509
824327 242692 509
552273 256042 470
295353 850367 525
532736 942371 525
259549 587595 470
995409 466963 525
699283 750867 504
933819 464189 525
223790 687935 509
436935 289513 449
37728 915808 525
662262 891210 525
946004 507466 525
3241 152918 375
263088 850142 525
57756 972075 525
631497 457392 509
