165694 409857 443
539708 575082 452
613318 829163 509
368290 819528 509
792875 836283 468
343818 924149 525
579389 163753 470
167804 168252 259
922798 642168 525
81698 522812 470
309223 633815 509
705761 375616 509
735830 670454 504
27037 243693 443
683095 100746 509
537036 433507 470
519538 795474 509
493882 548839 470
742843 697910 504
768324 591062 509
427753 587299 470
506135 821832 509
251728 841812 525
820414 993267 525
147442 996156 525
793655 227722 509
583235 350413 470
806304 541114 509
615676 585193 447
826737 797078 450
669363 273012 509
28241 117806 354
336171 824923 509
587754 254523 470
411760 870964 525
376487 42037 443
745549 170989 509
443425 800465 509
82130 909521 525
1169 159057 383
806940 867049 525
228123 176853 386
630213 337050 509
104808 586604 470
492782 136031 449
541442 733392 509
735320 982467 525
894806 679483 525
965047 774799 525
882378 805208 525
746505 970744 525
533644 170155 470
660149 220843 509
48898 595733 470
347801 13441 443
70331 270951 443
389911 537010 470
164740 913938 525
463066 11331 449
243662 863730 525
363960 169538 443
836783 560506 509
991065 43035 525
852187 586874 525
221208 32209 386
663536 438123 509
678934 997938 525
462709 524238 470
794942 945278 525
144093 435390 449
992710 417326 525
118402 953639 525
457886 762195 509
459483 592128 470
63697 88378 351
481378 619177 470
72688 89176 351
911955 246789 525
409441 658301 509
916060 157281 525
967433 872187 507
128326 932853 525
638851 140723 509
30097 18491 308
354997 766848 509
467889 694363 509
312815 903476 525
235608 532716 470
222475 115834 386
645478 695233 442
687571 495922 509
316843 575516 470
895467 875174 445
234967 728630 509
741991 685384 504
820300 127862 509
549233 334744 470
560717 168768 470
495027 870877 525
735138 672568 504
947313 658979 525
892282 945189 507
59616 921503 525
472823 955836 525
946258 614268 525
921251 562028 525
722464 806884 468
985901 650452 525
20193 606829 470
355701 644966 509
498001 239601 449
857355 621112 525
784686 763603 468
794437 940226 525
127714 378935 443
537333 81577 470
371742 652398 509
655477 14582 509
783064 51761 509
23703 278319 443
662546 241197 509
931964 93249 525
92059 273319 443
278062 139518 443
948502 449316 525
229041 890985 525
508934 909187 525
579204 759511 509
5187 632387 509
623687 626215 385
174125 875537 525
797811 194024 509
669527 710087 504
769001 408931 509
61727 355367 443
761988 597315 509
552208 330353 470
53459 282683 443
817596 620985 509
872300 942112 507
791313 680429 504
852316 972158 507
140991 679302 509
466558 64236 449
524157 58889 470
655954 289067 509
67465 159558 383
364365 760291 509
931378 635880 525
981473 784750 525
355307 610960 470
570042 995406 525
839071 248624 525
486479 526280 470
865227 830507 525
392878 837237 509
547553 24020 470
236959 797851 509
435787 590589 470
353318 428393 449
879549 369511 525
919821 437995 525
635541 721541 504
142911 320137 443
688460 917525 525
366565 188038 443
284870 406186 441
114036 254160 443
898293 495326 525
195990 597832 470
572751 761120 509
501519 870377 525
605606 674951 509
153414 914307 525
142429 155204 375
923795 133588 525
288150 218942 443
294689 648970 509
805368 82247 509
27078 271513 443
991865 78682 525
138945 575818 470
505542 136027 449
568655 841504 525
897933 432876 525
435378 155265 449
357326 182621 443
169178 585046 470
363819 440214 449
871848 273784 525
799887 496509 509
800565 347076 509
36619 950311 525
406872 227153 443
521717 589578 452
811667 423370 509
556812 84838 470
999921 797069 525
136786 917238 525
98718 387937 443
