839325 205715 525
602366 404455 470
610673 495820 470
645402 182771 509
907890 119365 525
819160 721280 468
932428 672991 525
967732 179931 525
454939 355903 449
253845 468522 449
244162 377879 441
883452 686525 525
570536 239789 470
249971 446642 449
614800 221616 470
572908 921046 525
722838 575749 509
906273 686005 525
595610 970539 525
318065 496733 449
116616 798309 509
743241 469398 509
9650 289630 443
124116 17553 354
328109 121290 443
812169 286835 509
362594 153540 443
625810 996972 525
316107 548514 470
321536 308119 384
403244 506270 449
275272 339160 389
392042 752987 509
552782 475525 470
850086 460173 525
663752 8850 509
579526 402100 470
641994 325605 509
906018 9817 525
202439 147306 383
236902 862856 525
517190 925998 525
410983 104690 449
759340 341583 509
805770 925009 525
83089 802759 509
532516 456271 470
671208 174374 509
105195 183536 383
86597 927162 525
439299 76 449
177364 574175 470
960782 864164 507
773553 675151 504
717179 121954 509
558701 932116 525
580162 740801 509
862532 292525 525
714764 806004 468
293768 664425 509
394093 964923 525
428893 845722 525
727333 665546 504
41840 846420 525
178060 206949 373
431546 930858 525
281627 718916 509
489464 795888 509
351776 665784 509
650885 196547 509
308861 207295 443
877341 952734 507
189462 663162 509
815951 902478 525
223194 190387 386
505551 964612 525
374197 910564 525
861148 682872 525
793149 579898 509
348908 734805 509
890790 967293 507
706400 245224 509
959540 213716 525
897395 646682 525
600163 853961 525
6223 689450 509
946826 265202 525
184356 851739 525
747343 490884 509
286972 29477 443
632054 31651 509
755968 290450 509
1649 923282 525
210024 159348 373
52171 72998 340
789899 236248 509
115740 240084 443
560985 832569 509
972318 170637 525
251030 92612 443
749770 255971 509
629174 678542 442
459886 946868 525
717012 584503 509
630911 228625 509
254863 151181 443
440242 608721 470
448502 831757 509
91612 27147 351
393492 696118 509
628004 636626 416
810271 639141 504
241504 615730 470
271742 488553 449
460386 919643 525
992044 68687 525
956368 683176 525
322194 740742 509
276702 620551 470
830743 40949 509
495707 449243 444
766543 588943 509
544445 79347 470
990149 791133 525
383377 510222 449
821065 531929 509
762275 944925 525
915609 457067 525
119974 712791 509
472729 266027 449
566463 822757 509
81170 557149 470
721514 173087 509
815119 807509 406
549466 231863 470
724763 709072 411
655298 299757 509
474057 193874 449
845376 217467 525
337003 999805 525
990092 337234 525
421321 859683 525
756073 837838 525
478809 634388 509
779209 582043 509
741204 97020 509
794743 763563 468
277236 449173 449
99779 808938 509
880325 516039 525
541453 713172 509
102009 975310 525
497172 463191 426
529750 385385 470
711240 498360 509
908355 312494 525
633225 954616 525
666786 530676 509
985230 736017 525
262847 547395 470
966419 370746 525
209098 940173 525
101198 460969 449
953275 48422 525
135784 975293 525
157766 273499 443
383513 471349 449
240627 724868 509
820782 853712 525
297499 4315 443
557132 530147 452
121380 551121 470
14377 829582 509
4987 547552 470
501424 735585 509
109585 305667 443
225407 394837 443
153554 651845 509
868184 540987 525
105391 26155 351
821643 535935 509
936294 609009 525
222903 920178 525
229845 203215 386
282772 954815 525
178550 455415 449
112684 398090 443
934706 944885 507
48048 567284 470
365703 366588 335
45266 988774 525
897458 167174 525
256748 454013 449
426288 363620 449
499896 256995 449
205724 687322 509
579433 624374 447
67921 502102 449
559324 617349 447
532210 854743 525
589105 798412 509
905664 91807 525
146695 930863 525
222252 105217 386
580707 375126 470
737848 916583 525
138996 201262 383
488182 918491 525
343989 227393 443
349234 467722 449
838860 34294 525
474381 135368 449
798781 335436 509
906319 395708 525
207257 179687 373
863387 175328 525
132306 224806 386
494293 511983 470
994802 762192 525
212836 463307 449
369680 745975 509
435575 731179 509
756110 700600 504
778824 818511 468
987250 630594 525
400627 406533 405
610038 34667 470
746287 189509 509
601430 456088 470
791419 235409 509
586191 949009 525
302137 852022 525
906803 686105 525
837231 413866 509
929331 779011 525
182242 408856 443
215576 175476 373
989887 726018 525
819447 945441 525
358171 750587 509
701039 370528 509
662558 320139 509
768178 526474 509
952893 676446 525
584781 921084 525
998118 577348 525
661904 926041 525
504009 165595 449
437734 552406 470
402198 467013 449
901812 193018 525
115738 919735 525
879796 547627 525
386925 142281 443
561978 957651 525
103102 845392 525
576859 37417 470
235485 741655 509
752912 672007 504
939303 210025 525
370672 658343 509
957896 15814 525
356269 534386 470
870322 56052 525
195663 434321 449
412667 525977 470
599491 63908 470
301979 533027 470
799842 18717 509
340225 180492 443
997219 951793 458
930670 871834 476
904518 996603 507
915616 835559 525
730280 876238 525
791488 354813 509
800594 42092 509
489191 483381 382
782501 608291 509
989279 513595 525
458167 970543 525
328692 513953 470
841289 129897 525
887570 235801 525
246307 960570 525
939108 13451 525
602919 985940 525
708205 756581 424
368782 779537 509
110306 799273 509
960760 590865 525
372574 527083 470
807804 481046 509
124489 240340 443
972832 613753 525
86809 385436 443
202118 672350 509
622632 997118 525
483921 619607 470
296667 509737 449
691461 986441 525
229706 847882 525
961081 892752 507
521581 603785 452
968532 246804 525
254586 135661 443
120786 438650 449
707271 947629 525
10458 659345 509
998923 647473 525
22957 834205 509
814685 248224 509
364211 268410 441
93679 436665 449
594512 439272 470
480740 32296 449
345001 778736 509
994535 721840 525
463792 691986 509
369443 300749 441
932178 82558 525
316372 228571 443
156041 471382 449
507352 918653 525
354564 470213 449
73013 432772 449
221811 555260 470
914797 62391 525
470563 590449 470
904575 571766 525
528802 28645 470
195651 231708 443
369588 431817 449
287692 263733 407
591583 30234 470
155501 485245 449
103496 616775 470
981214 816332 525
368348 591876 470
346860 527782 470
465817 830450 509
236949 101853 443
733424 989693 525
389036 638774 509
590632 581483 434
657128 72744 509
828340 640371 504
456001 622811 470
571061 836330 509
393979 754906 509
785027 788976 406
156448 970523 525
937497 12428 525
659308 48792 509
597867 833535 509
529242 612817 452
173544 36622 383
226025 75119 386
425825 461978 444
716036 686699 504
477284 176580 449
109764 243958 443
588393 946323 525
987088 237792 525
185735 802258 509
951726 927285 507
473883 355297 449
461759 948808 525
634887 895512 525
330286 582681 470
687117 578107 509
283247 887586 525
749596 233902 509
473093 301093 449
138740 125411 344
640700 360136 509
293543 713662 509
929949 449614 525
994006 318196 525
120240 11746 354
427210 607998 470
523870 311257 470
504606 509150 382
196634 746046 509
900807 357633 525
803982 771913 468
398587 879852 525
93085 805315 509
635073 636254 416
886948 666096 525
731058 472942 509
356772 90830 443
537884 906529 525
561038 188202 470
270825 787634 509
723464 892846 525
455960 888935 525
468185 561793 470
690423 757227 504
441724 148972 449
333490 776518 509
853936 58098 525
419116 658165 509
345946 873379 525
146982 130181 375
708533 19503 509
609407 597932 403
91811 763635 509
94917 70384 351
415979 774692 509
338647 880973 525
148712 915961 525
314804 828699 509
535228 345245 470
831208 129087 509
542345 412454 470
357710 445449 449
140190 548520 470
197505 865080 525
286945 566219 470
404474 745461 509
574802 823085 509
513886 700694 509
180190 181502 365
426446 825732 509
126432 765517 509
570984 180134 470
454840 388539 449
421400 345505 449
409772 842858 525
430188 8837 449
320475 674606 509
808435 444852 509
480501 978570 525
582181 672780 509
942105 674770 525
501164 14315 449
780007 400881 509
763765 97111 509
327838 372820 441
91613 963008 525
664596 376562 509
123128 739410 509
124945 797372 509
549000 852619 525
966208 519025 525
584631 935487 525
789351 906925 525
495494 116612 449
53566 840756 525
675255 105550 509
209839 64550 383
918340 30878 525
877126 904888 445
124670 386452 443
438155 887379 525
13969 27500 308
141833 631881 509
769865 853734 525
833442 116673 509
159043 598460 470
530262 889711 525
756304 398266 509
85894 445527 449
442348 752112 509
395513 343998 441
237723 372640 441
629834 469430 509
577246 667268 509
552705 184870 470
612265 58152 470
948683 829725 525
89965 766140 509
234554 98390 443
504350 478072 426
59772 639407 509
782124 844933 525
774787 755455 468
744581 410590 509
659926 980922 525
378890 571092 470
646407 740716 504
582354 996209 525
232613 670364 509
333423 15367 443
712118 716179 411
501010 59284 449
259813 130023 443
319637 561760 470
172050 96712 383
418763 603219 470
756220 91834 509
196490 377806 443
369482 7717 443
331228 313562 384
635759 272383 509
415936 227525 449
382805 676583 509
714946 231044 509
549740 824777 509
