997838 638916 525
963437 932938 507
326424 156713 443
945767 12509 525
271339 334810 389
206904 394974 443
590548 979426 525
913615 663334 525
112349 202220 383
464345 240668 449
221726 104878 386
841548 838302 388
808301 982365 525
960074 618158 525
459830 994011 525
942525 149504 525
316032 826224 509
75781 270694 443
949948 744320 525
82284 923354 525
742323 394013 509
779926 146228 509
897194 665543 525
25206 300973 443
970015 282248 525
121247 607682 470
207958 466992 449
907339 243167 525
298700 600360 470
825199 111607 509
245652 56796 443
72521 661353 509
838712 441850 525
912430 275537 525
229647 630477 509
180530 889185 525
854188 984239 507
134030 763405 509
701945 156960 509
215162 717896 509
96557 791197 509
134211 739119 509
252449 179214 443
406484 994464 525
22193 592029 470
798748 506317 509
7008 553636 470
18434 738395 509
239939 81396 443
401032 137400 443
822906 373642 509
857801 621716 525
501089 181354 449
495127 772070 509
780602 792728 406
588488 166816 470
469106 324987 449
429090 556095 470
255246 230868 381
81430 771595 509
45585 265180 443
900472 63238 525
446629 361097 449
383745 599933 470
899166 856786 445
727458 610770 509
313908 111130 443
349459 750536 509
819007 695051 504
469110 617548 470
133900 80763 354
665312 365357 509
929112 506231 525
51126 999457 525
603112 757852 509
290576 477641 449
88974 940981 525
645379 885495 525
925150 863455 476
493522 748427 509
777540 353829 509
769362 735522 468
289792 904770 525
271991 732773 509
398890 335680 441
931816 794713 525
712563 394090 509
152052 852801 525
312536 678066 509
751831 604174 509
750308 705825 424
43164 86766 351
560477 780597 509
444797 252283 449
988522 107286 525
321191 727203 509
716999 31548 509
496527 588734 470
488334 137795 449
461058 419753 418
745232 538570 509
425139 75240 449
955947 124866 525
380911 31269 443
734076 967282 525
341586 604721 470
692988 69756 509
769368 238664 509
813711 791286 468
821843 722758 468
158764 935598 525
209224 508370 449
256218 705235 509
207644 226872 386
285123 972151 525
509587 247571 449
131708 556576 470
553772 272770 470
687471 606663 509
683815 250356 509
901016 1969 525
441188 619107 470
366400 767379 509
938649 67905 525
694672 372581 509
982949 512434 525
828430 797153 450
858526 330596 525
321182 834591 509
320713 497489 449
923580 686608 525
495584 645043 509
963484 507150 525
703393 982827 525
213586 478649 449
418246 626257 470
94655 999219 525
82976 97280 333
146284 77131 375
296262 410045 449
954973 623369 525
691636 259267 509
982924 801335 525
937992 42396 525
67039 43958 340
810978 149483 509
816441 908602 525
991374 47664 525
475399 782346 509
739422 588742 509
315206 733593 509
95778 619074 470
787550 674696 504
475649 513717 470
625410 924962 525
524315 228749 470
159594 709424 509
997307 235657 525
535566 399554 470
831137 151178 509
674511 959009 525
436176 413224 418
37195 582373 470
732634 836769 468
227463 148211 386
439850 946092 525
411183 799597 509
964403 808327 525
664868 80937 509
483600 789565 509
577019 389876 470
575399 487252 470
952229 35353 525
909916 814462 525
830238 663433 504
574281 54928 470
659098 671056 442
641750 782250 504
184567 831678 509
236882 444894 449
394435 439173 449
64420 227432 386
482247 904895 525
534767 520644 408
630065 943781 525
541711 721098 509
198880 444553 449
435126 630567 509
892834 581471 525
38592 381792 443
72399 90185 351
858314 950206 507
83556 64238 351
602964 237376 470
876459 572858 525
401235 60936 443
243677 345979 441
899778 86249 525
444718 214356 449
347113 855451 525
506646 635476 509
506607 824125 509
150396 511678 449
692990 473181 509
770448 312977 509
763203 33517 509
505353 969359 525
8405 596853 470
685547 872459 525
610710 713929 509
189067 393731 443
995010 278346 525
942481 959228 414
714012 393328 509
142315 498284 449
509057 52544 449
620531 132505 470
833084 280673 509
147901 185678 383
852726 470096 525
823737 799736 450
713209 170044 509
579444 8643 470
666384 391659 509
568448 124930 470
547637 151609 470
667957 986465 525
848162 298377 525
788639 985969 525
194046 35708 383
316497 811535 509
256860 150283 443
802522 715095 468
751738 941488 525
597807 277172 470
482290 242045 449
748898 802189 468
240385 85803 443
607943 833770 509
582482 296031 470
319464 969184 525
22264 713799 509
538917 32540 470
321203 8116 443
916136 133177 525
180176 6651 383
293217 995677 525
252283 321420 407
397576 628409 509
217719 924133 525
