24441 512638 470
900953 102075 525
560422 375648 470
298987 572413 470
622985 951722 525
618994 967259 525
240084 931671 525
913965 448905 525
848746 116970 525
1812 651633 509
458982 255028 449
94008 511659 449
136851 752058 509
87792 182174 383
356024 273647 441
807533 353865 509
662154 806821 504
249715 218658 443
600952 92403 470
541801 910392 525
571131 121032 470
506229 321765 449
113329 214245 383
167752 823788 509
603892 234029 470
796502 253269 509
536710 948259 525
29140 870947 525
452281 599441 470
167471 811515 509
556954 196840 470
73503 427807 449
692116 912389 525
558833 685635 509
416159 669921 509
932548 37663 525
779191 770712 437
670794 745507 504
856675 643259 525
485151 527415 470
334406 76442 443
506990 197596 449
635133 657430 429
416061 387682 449
737817 151292 509
767935 480030 509
489215 760455 509
401050 964790 525
990350 967322 458
702558 893844 525
887315 23117 525
437406 824014 509
757898 475570 509
628210 636022 416
249224 287849 407
967643 87720 525
156003 339415 443
402704 862606 525
332136 214187 443
252610 243517 350
551685 324019 470
525690 672021 509
347496 642773 509
75524 327943 443
925079 336104 525
193556 923897 525
771995 659650 504
542524 880469 525
959499 613297 525
11733 394925 443
736411 158543 509
131324 868957 525
329287 176114 443
586350 579419 434
735195 644243 504
480078 939687 525
71948 165893 383
873244 4907 525
818073 131086 509
816039 44254 509
714566 226970 509
735099 667357 504
896144 381358 525
328708 390040 441
199218 546311 470
674148 205337 509
540981 608265 452
817812 972223 525
957918 878526 507
857381 835790 525
663569 16762 509
132213 796635 509
539577 632616 509
588692 899513 525
202669 649343 509
135771 487637 449
802947 815094 406
521056 43985 470
948694 61720 525
670259 908423 525
194730 804198 509
993358 933695 507
439564 420703 418
493427 429946 444
832823 216067 509
745427 413005 509
85274 355649 443
259052 46529 443
153430 952586 525
778510 829250 468
188738 353965 443
914642 935586 476
540571 489933 470
127663 290303 443
470631 268554 449
889720 734110 525
907778 966543 507
292856 491088 449
411635 761325 509
519013 498837 470
259726 567423 470
711321 596953 509
215919 66315 383
776605 319791 509
266015 683440 509
55291 587694 470
72266 349388 443
104841 179147 383
393172 90309 443
509342 793367 509
456443 29644 449
183125 199333 360
62600 330235 443
385229 772876 509
840123 480570 525
426509 410192 418
49778 273611 443
510144 185916 449
740257 995843 525
435455 738048 509
581617 150822 470
81154 795542 509
109451 274724 443
609937 383354 470
784686 554885 509
58254 895463 525
105765 258420 443
316560 419223 449
637305 916173 525
480059 4272 449
139192 494784 449
928868 342991 525
138540 540215 470
985884 209362 525
939765 838262 507
261060 893384 525
12491 619633 470
76987 290485 443
233632 136625 443
60220 893154 525
228669 943249 525
130735 831727 509
279379 821612 509
293190 555739 470
892345 154949 525
426892 425336 356
292073 15796 443
365509 548129 470
855970 918208 476
114942 857535 525
28045 877495 525
492789 375887 449
949502 910815 507
180015 941994 525
992922 572900 525
37915 402673 443
245987 735156 509
364756 634288 509
588175 503154 470
413812 823579 509
136841 537554 470
840977 650747 525
622622 412107 470
820484 661129 504
582078 391072 470
179656 563426 470
220975 780118 509
761451 370556 509
88584 196236 383
376117 852291 525
136361 769901 509
215890 240091 443
760695 338755 509
424631 400881 449
817669 831511 450
356835 926463 525
278456 643127 509
779117 124505 509
739496 436354 509
187051 863740 525
