300094 612163 470
929678 988357 507
541772 528403 408
944755 175899 525
344625 172676 443
427208 802182 509
318284 345775 384
878788 913624 476
867689 540141 525
520648 316367 470
587972 779907 509
966330 182711 525
729752 101713 509
598140 135413 470
849925 436150 525
863488 125233 525
563096 646086 509
281353 33649 443
252279 59372 443
975828 946636 458
821466 257306 509
706682 857744 525
935106 28760 525
502188 647644 509
442026 827417 509
508948 653405 509
905933 854350 445
190618 944232 525
628061 136815 509
915853 145441 525
717736 952352 525
75382 610841 470
110285 581259 470
42746 346823 443
271251 456948 449
17888 738452 509
541077 400958 470
56472 344364 443
850788 426088 525
117483 964423 525
1773 2184 175
408382 186356 443
690201 881553 525
976173 789808 525
3809 598928 470
473128 562308 470
342427 245910 407
863127 953352 507
305956 310294 371
24177 556928 470
670595 932346 525
413903 468109 444
633239 920830 525
815825 929902 525
677853 90606 509
382720 809752 509
627701 49734 509
25491 426554 449
152639 162753 383
314218 500129 449
27073 236482 443
481839 797941 509
666370 180824 509
845289 819083 525
731479 278812 509
932592 891550 476
295873 482517 449
57024 846368 525
986796 579481 525
769638 325742 509
792030 111711 509
158517 617097 470
423005 634723 509
744829 317118 509
398305 238372 441
82372 701030 509
17703 450639 449
791767 584914 509
373912 835383 509
166891 132966 383
950158 365350 525
602803 32518 470
663943 68016 509
128691 177995 383
636513 385202 509
181524 432874 449
628305 814144 504
801329 721104 468
403794 96086 443
514704 985389 525
372294 67873 443
417505 520385 470
175677 99708 383
667334 938141 525
511297 634589 509
302964 353021 441
586937 340352 470
574010 773266 509
423140 544496 470
914128 568358 525
215828 607504 470
636302 897261 525
975223 360627 525
171537 413144 449
661112 633959 429
850785 941218 507
382607 377316 379
352752 665079 509
763014 588966 509
103166 482513 449
518913 601617 452
962545 712861 525
352202 789204 509
640889 564504 509
431383 147550 449
324433 20996 443
874666 520472 525
349597 845744 525
808643 916003 525
39526 265298 443
653852 604825 509
427202 748074 509
484570 374875 449
603610 260410 470
193208 275732 443
506621 318332 449
560807 670088 509
148513 64323 375
209977 585940 470
207353 946762 525
311594 103336 443
868202 683258 525
862597 276000 525
116396 31222 354
38524 800463 509
149771 982758 525
801584 866618 525
86081 310430 443
870243 548832 525
246024 566948 470
487002 645627 509
947546 624844 525
408556 828444 509
459905 574488 470
660673 745759 504
586452 871257 525
139243 278346 443
443403 298253 449
920785 476497 525
755120 701000 504
280955 803696 509
253941 925241 525
722498 430906 509
406157 435126 449
34155 805130 509
429939 488243 444
149889 431939 449
147152 429419 449
423542 810926 509
493260 193303 449
568795 512885 452
645582 765587 504
635622 497574 509
436724 404301 449
481328 47922 449
219072 303384 443
199473 402899 443
259380 298845 407
228645 480389 449
289265 151052 443
171299 201597 365
527446 984397 525
986969 878333 507
718784 58010 509
178828 992812 525
943839 376137 525
105205 227796 386
397821 172393 443
436420 387624 449
299433 683879 509
618592 641833 509
231800 2662 443
272182 113309 443
804015 531136 509
79922 378123 443
591687 217564 470
638395 535940 509
830590 733863 468
740113 973074 525
34172 751252 509
264645 917490 525
376882 605360 470
291156 801957 509
367545 476613 449
522277 973439 525
888087 31659 525
751097 366177 509
504616 3925 449
71349 256789 443
60259 688841 509
324906 900015 525
659758 419656 509
218431 73024 386
112766 701118 509
261894 911820 525
827370 990255 525
591442 570403 434
212942 53223 383
600071 713403 509
558433 805131 509
954763 86907 525
168126 428284 449
237444 101916 443
506436 115273 449
25619 976582 525
337506 621375 470
999865 973256 440
995550 165479 525
505271 69099 449
367602 952557 525
912408 446700 525
52020 931221 525
447575 114370 449
212820 785223 509
217908 981978 525
511092 500812 426
515799 242154 470
310149 362794 441
38147 634179 509
872591 690851 525
723116 528072 509
569876 746405 509
471437 723244 509
912030 586533 525
921123 892699 476
783601 463495 509
549691 978171 525
277434 149181 443
111367 627467 509
403837 420134 449
761835 122823 509
48294 740522 509
567278 294306 470
120669 117600 336
441950 340853 449
365967 868110 525
697164 844111 525
403683 933420 525
509631 941215 525
91044 710101 509
