860503 611230 525
57321 713681 509
632884 859544 525
855302 673031 525
138497 618032 470
622736 854967 525
310858 798304 509
661796 649480 429
839913 735603 525
294697 43102 443
9638 376441 443
305908 662634 509
664107 758631 504
765289 703855 504
335992 506948 449
564635 494348 470
919302 691304 525
305583 507824 449
629703 973770 525
146999 906819 525
662536 364507 509
451434 986047 525
912137 738327 525
881337 378790 525
179489 118882 383
803613 448963 509
36816 55103 340
404017 992735 525
8350 823170 509
661280 291682 509
642274 659809 429
318688 850470 525
324251 220164 443
977996 458892 525
404386 805772 509
116566 325534 443
927438 451810 525
195280 626152 470
873931 805245 525
328241 570300 470
794707 221654 509
306059 694867 509
370610 19441 443
863499 285386 525
27113 943879 525
357456 449705 449
484233 881255 525
927958 619930 525
905557 5862 525
34119 492105 449
166268 50933 383
733415 33998 509
803138 84956 509
102579 191166 383
714832 180381 509
809138 658107 504
315916 34542 443
875645 185866 525
577634 900373 525
665602 830991 504
765048 699789 504
127675 562600 470
825779 689224 504
507642 180503 449
765297 586257 509
315062 287961 389
987272 693676 525
625854 260328 470
933519 168018 525
110208 980503 525
63063 176125 383
160850 66474 383
328588 906267 525
300814 559201 470
442549 820822 509
546692 744222 509
903126 54808 525
589837 848441 525
129918 903292 525
483882 327766 449
27656 374259 443
168702 814480 509
302626 547651 470
512211 420485 470
409429 922108 525
734081 376329 509
204701 433151 449
63479 398224 443
895845 419134 525
787322 719012 468
893803 855913 445
620721 294002 470
130759 834927 509
799407 343295 509
502834 693149 509
655284 321362 509
375362 225957 443
832650 841917 525
117170 301822 443
379241 792094 509
970485 586398 525
218921 288997 443
631058 518272 509
565434 166033 470
683463 538599 509
272364 190587 443
687181 346899 509
856597 429146 525
650300 736522 504
557129 625923 447
330510 458910 449
545234 873008 525
356206 287616 441
793309 169312 509
695267 536953 509
555054 835349 509
424271 990843 525
715476 68863 509
272381 384918 441
550261 315411 470
313164 618124 470
240982 665715 509
370939 14687 443
474968 921852 525
680580 796600 504
863003 203745 525
830324 870316 525
249531 616400 470
559354 744556 509
93767 161588 383
860710 833743 525
693048 599339 509
937414 85053 525
511048 603185 470
771307 50789 509
341333 947454 525
911915 320989 525
753286 198778 509
124565 780036 509
963725 1147 525
589779 417329 470
801725 36265 509
65443 439347 449
218331 493290 449
883683 323815 525
42837 428679 449
296325 938028 525
129458 802190 509
74974 759230 509
944305 113688 525
116403 766078 509
742438 755541 424
148802 360501 443
664378 996663 525
334764 935465 525
425555 557790 470
426787 240771 449
232838 137448 443
124523 119332 336
172995 203793 365
286848 318178 389
845900 757059 525
604598 539217 452
13323 875309 525
710037 571953 509
82342 597843 470
84601 511506 449
423387 650652 509
649334 315231 509
578969 67282 470
433431 160787 449
165150 987837 525
563721 489523 470
816115 767742 468
533655 425285 470
975989 166769 525
1437 288756 443
400869 524975 470
124168 539447 470
884901 344844 525
956384 996807 458
24632 790207 509
36616 365878 443
531893 627163 509
957098 367764 525
155616 727106 509
880329 796780 525
207079 218550 386
794483 268659 509
242869 922523 525
424984 500801 444
868745 536825 525
272304 676495 509
855694 388048 525
525089 954229 525
932554 981320 507
54387 403730 443
730864 59151 509
593181 669436 509
370199 529625 470
480392 280423 449
35031 352710 443
704306 296842 509
837185 97757 509
52293 323403 443
677011 784002 504
599912 665354 509
83229 508637 449
784816 14476 509
884984 310050 525
921151 327667 525
799639 501732 509
391987 563078 470
955288 303601 525
654250 391035 509
474449 777553 509
215053 942301 525
101322 805202 509
954340 36087 525
578256 197543 470
450401 224202 449
427620 737051 509
3360 876324 525
52187 828912 509
937957 342317 525
546122 870232 525
513226 359505 470
697696 937755 525
431153 518872 470
700884 933856 525
579568 760688 509
323330 723339 509
151002 712637 509
140178 102979 354
820654 384393 509
518842 72351 470
193739 306375 443
450495 958028 525
573211 852503 525
258557 930177 525
611086 224588 470
755676 536980 509
264258 401464 441
280235 618226 470
684075 732216 504
598845 701553 509
152621 831240 509
347232 492572 449
247117 602766 470
940462 383380 525
609568 581487 434
952145 605339 525
452669 712671 509
823468 574648 509
278335 150336 443
675012 703647 442
759422 856414 525
863034 569462 525
269888 635688 509
979083 539833 525
19498 178471 383
627867 461520 509
800589 49136 509
958966 933443 507
91859 80726 333
28100 337692 443
138961 20533 354
326085 198961 443
749516 274078 509
242000 498694 449
728950 745289 424
378445 181524 443
311255 856597 525
379489 645279 509
764320 341426 509
654837 597285 509
55583 864201 525
388690 464458 449
282460 784766 509
672810 555680 509
993428 401594 525
247977 92386 443
702825 479552 509
622780 207554 470
863319 434570 525
693757 357780 509
716571 824117 468
949094 107325 525
988232 30114 525
54767 28428 340
385241 835682 509
153083 693160 509
570841 409805 470
606129 138332 470
875939 913722 476
224700 456958 449
927901 635218 525
246566 54660 443
412120 695690 509
923676 140063 525
