852185 440253 525
446998 841249 525
712785 859429 525
460879 184481 449
493566 853705 525
893224 583307 525
355526 590290 470
738709 430605 509
404654 339262 441
442261 402782 449
779861 91272 509
439424 974985 525
562836 732194 509
116050 675830 509
744275 778427 468
289522 972128 525
786294 915423 525
276202 467035 449
972984 181732 525
861628 628279 525
469524 621489 470
443805 242045 449
340023 598870 470
521012 130999 470
164059 407700 443
633383 329611 509
843588 339121 525
686436 73381 509
934317 606475 525
745042 346777 509
652828 314916 509
227819 501455 449
570737 247489 470
449692 463346 444
621639 878209 525
807921 322948 509
601070 320303 470
895368 549050 525
581436 813833 509
207529 398187 443
425532 785234 509
441849 797547 509
378971 885407 525
877751 324726 525
800385 44672 509
6735 376175 443
771947 240832 509
21949 715844 509
59305 775986 509
253692 301616 407
184761 905845 525
852546 536394 525
611473 593134 403
180749 883640 525
283016 893794 525
546046 934778 525
199817 291988 443
648920 881117 525
404994 591553 470
593060 757917 509
497918 273871 449
871460 522598 525
708565 586877 509
735016 631690 504
72483 407283 443
168605 626277 470
753660 517769 509
86924 163270 383
655994 609422 509
598039 754914 509
130623 367933 443
16228 921289 525
502853 447295 444
299870 613818 470
615885 252480 470
446502 428527 400
266649 947519 525
93963 162367 383
219643 124497 386
34244 482339 449
21403 480494 449
967558 555648 525
969686 233538 525
988693 334745 525
786520 150053 509
882058 73617 525
45891 305713 443
55835 357654 443
441238 542917 470
867367 540085 525
385673 700693 509
524813 6049 470
485458 633224 509
834360 84773 509
75340 685707 509
107634 707707 509
233723 698544 509
402288 951274 525
137727 43131 354
958090 171068 525
609669 990916 525
4453 978973 525
901194 215524 525
94022 543775 470
910565 191988 525
539299 997591 525
227925 229194 355
357185 110785 443
166804 304340 443
922088 818686 525
923521 114961 525
244369 13807 443
444160 315996 449
320023 617329 470
28597 430063 449
264969 917880 525
522479 636653 509
753644 402830 509
521133 150035 470
42816 956405 525
797526 918278 525
904261 345932 525
598260 999772 525
4831 596525 470
642803 482666 509
445313 70765 449
47368 184416 383
26604 842589 525
487900 275516 449
415607 423446 387
227367 445670 449
181755 464610 449
624128 904080 525
704919 158317 509
688547 739076 504
499726 945139 525
113898 270855 443
658834 4628 509
957207 954521 383
636586 414528 509
297024 832561 509
504806 178348 449
143403 143539 282
761865 394142 509
659872 519540 509
793464 670934 504
445584 701376 509
718577 369730 509
869913 820857 525
383491 980874 525
972143 466240 525
662052 851868 525
392559 902945 525
744529 507199 509
762601 171957 509
183493 300552 443
27174 22416 308
986678 814124 525
772558 503430 509
628308 498166 509
35350 231530 443
437362 405751 449
691555 986085 525
914085 200049 525
304294 683425 509
832737 461886 509
173172 893515 525
531735 838831 525
610055 55727 470
616807 744052 509
21721 776896 509
36846 826247 509
416528 861885 525
278416 690800 509
465038 151768 449
746615 102907 509
20726 487762 449
418813 565122 470
8629 27934 308
66352 870216 525
207630 965771 525
514131 82119 470
980394 732807 525
530890 20592 470
61725 686990 509
736554 60387 509
347006 817328 509
467191 412983 444
458019 147220 449
502009 223562 449
999362 164564 525
579613 688886 509
277186 196386 443
886639 17193 525
902803 241158 525
312630 536252 470
616780 888948 525
885137 634484 525
103728 185980 383
621722 386235 470
