1 10 20
100 200 125
201 210 89
900 1000 174
1 1 1
233741 630430 509
858093 174690 525
590687 47021 470
238751 406223 441
923260 395896 525
765969 18522 509
600825 543144 452
368111 434712 449
798539 780177 468
595163 144866 470
422490 601622 470
728781 251354 509
825600 453142 509
310067 463272 449
821795 101852 509
102124 643042 509
300458 48476 443
475739 688249 509
342446 784052 509
430405 394386 449
418870 550914 470
721952 220912 509
602297 597216 403
959403 846676 507
865172 926720 476
377267 501880 449
239426 956401 525
598667 314549 470
778338 917635 525
427577 391974 449
852503 970175 507
963751 181220 525
228444 710982 509
660044 637578 429
583644 598380 434
329708 684122 509
551527 742410 509
188838 963589 525
134821 534048 470
653660 591967 509
111128 544807 470
14768 540112 470
432314 329253 449
414378 562899 470
686379 484833 509
5554 666931 509
479360 139525 449
516569 521381 439
627668 732892 504
60403 627865 509
855334 735362 525
16710 777821 509
639848 822284 504
914334 827251 525
656816 794725 504
427328 612889 470
814898 841475 525
794270 757675 468
559670 153240 470
23909 358323 443
12405 291554 443
668268 171275 509
705859 889879 525
315357 886632 525
20867 338764 443
331144 517035 470
335997 316130 384
515939 82083 470
691545 908932 525
724109 674266 504
491709 679607 509
291850 564898 470
547142 217907 470
495840 192994 449
871238 216331 525
612882 262567 470
712923 899770 525
661915 535212 509
374401 400272 436
986130 82810 525
102692 571085 470
508724 53981 449
805420 5697 509
41073 392659 443
791338 697484 504
777513 180342 509
659364 260059 509
767541 780089 468
74329 502186 449
616076 446242 470
580726 492831 470
605398 191200 470
864139 44231 525
5764 741019 509
598880 217475 470
510122 815382 509
549760 322006 470
916601 243404 525
206662 665768 509
470785 701498 509
287631 351622 441
757915 580033 509
315073 747800 509
180096 510240 449
446765 683013 509
945623 362468 525
194344 420307 449
231317 978522 525
674334 248746 509
164735 294253 443
813623 560218 509
851560 188870 525
858425 154205 525
686852 250271 509
128128 837462 509
654254 904390 525
358324 565905 470
745683 325699 509
656899 819010 504
496859 624076 470
126594 264315 443
247313 179985 443
359416 306262 441
514513 428900 470
583256 174182 470
727877 971833 525
542193 845893 525
947368 195664 525
119332 334321 443
731125 143372 509
714415 70151 509
942374 792230 525
992461 440801 525
222807 523992 470
948210 564795 525
183770 17706 383
208607 197494 373
923553 315935 525
177971 159745 370
851647 470492 525
959036 91146 525
857344 422829 525
488553 909959 525
866698 58126 525
28323 342049 443
562832 526912 452
60624 65664 335
480734 908225 525
495814 262986 449
160557 147559 383
454348 141365 449
296229 372392 441
204094 251098 443
54593 767764 509
811899 651522 504
382234 563092 470
525209 498594 470
637280 980715 525
237702 961412 525
815543 396509 509
229203 881199 525
207781 68848 383
974950 640077 525
237721 690240 509
839119 296596 525
73312 761798 509
700260 889417 525
99949 223901 386
504182 672340 509
552195 350366 470
235497 227190 443
487573 345285 449
652473 514837 509
774788 261938 509
471994 178079 449
795703 600792 509
172513 786374 509
827662 318721 509
747098 741062 349
872216 116359 525
890286 110317 525
666558 988228 525
786402 581774 509
816092 364111 509
431731 519197 470
752712 812474 468
871761 754452 525
900994 431671 525
185517 294459 443
523931 335002 470
402176 101901 443
257744 822386 509
94911 756841 509
181515 32526 383
121267 707899 509
59284 601745 470
197449 931593 525
378746 528648 470
80 178131 383
521506 970770 525
