3998 864 238
4937 3578 238
2856 2825 173
20 394 144
3591 1056 217
180 3845 238
2457 3728 238
3497 1301 217
1617 1350 172
1251 2811 209
749 3518 217
1801 4497 238
1826 1537 180
3489 1424 217
1286 1609 177
1989 1684 180
784 3939 238
2213 2812 209
4130 4518 215
3916 784 238
269 4477 238
12 2049 182
4008 2390 238
1449 2765 209
474 1860 182
2373 775 183
159 2191 182
2869 217 209
3456 1267 217
4676 3346 238
4760 3540 238
4493 4196 215
4723 151 238
2295 1424 183
2051 2341 183
2126 392 182
1822 1049 182
4532 2079 238
1610 2491 209
4612 583 238
1179 87 182
2795 4344 238
3933 2950 238
4447 1576 238
935 856 179
795 730 153
363 2890 209
2095 3731 238
1775 2127 175
2281 1826 183
4778 2364 238
299 727 171
4810 4445 197
1498 4042 238
3125 2239 217
2133 3780 238
3270 3097 199
3773 4543 215
1565 2234 183
274 3880 238
1930 3416 217
1513 1250 177
4857 1440 238
942 1877 182
4088 1875 238
4201 125 238
1940 828 182
2166 4436 238
1007 1348 182
3150 979 217
750 1971 182
1822 2653 209
1533 3051 217
2302 3423 217
1886 4300 238
1631 4127 238
3682 4312 238
737 3239 217
2854 1891 209
1225 742 182
4452 1781 238
3325 336 217
4678 3313 238
922 3648 217
4886 1767 238
4412 3213 238
2627 666 209
2044 2054 157
2363 1854 183
1659 295 182
4426 4852 197
799 4197 238
4352 193 238
4768 2827 238
1029 2370 183
1826 3376 217
4470 1075 238
4907 564 238
1261 2960 217
635 4373 238
895 2300 183
2340 2195 183
76 3400 217
4047 464 238
4288 1954 238
2701 1279 209
3698 3911 238
1044 4220 238
3408 314 217
620 1112 179
1292 3735 238
168 1982 182
4539 1603 238
2156 1058 182
3645 703 217
3864 4616 215
1641 1687 180
740 1366 182
4972 1936 238
1645 3078 217
4706 4416 184
180 4892 238
3624 3819 238
826 3908 238
1951 2456 183
4017 466 238
4370 2403 238
662 3162 217
1830 3030 217
3121 3557 199
2972 4905 238
3275 3736 238
3800 533 238
1374 2989 217
3436 1739 217
2633 542 209
1901 939 182
4030 2178 238
2111 375 182
3258 2985 199
3301 1123 217
3530 4144 238
4105 3927 189
2369 2078 183
1360 3713 238
309 2933 217
2331 4470 238
408 1322 182
1738 1904 180
654 4304 238
1924 4350 238
4586 4666 184
1913 4654 238
1057 2672 209
4173 4105 189
1980 394 182
250 4542 238
258 2462 183
2372 1598 183
3921 139 238
4490 115 238
642 370 142
4651 4885 197
71 747 171
341 3683 217
1465 1224 177
1718 2325 183
4936 3905 215
4207 196 238
1861 2112 175
396 4389 238
3807 4524 215
3368 2079 217
3615 680 217
1034 3848 238
3778 3060 238
1899 360 182
252 4280 238
4012 884 238
561 1659 182
4811 1429 238
208 1292 182
4805 723 238
1411 1027 182
1770 2874 209
304 3294 217
4418 4051 215
1779 3855 238
4878 2087 238
1348 2271 183
4203 849 238
4409 1058 238
2105 1566 180
554 2139 182
1588 2176 180
543 2187 182
4058 4012 158
362 949 179
4788 127 238
2002 4092 238
