359760 250509 441
640396 709079 504
694075 268720 509
378713 194476 443
964438 442735 525
664713 832385 504
493197 622701 470
884484 727848 525
245698 98628 443
658007 136086 509
967598 560512 525
203329 641280 509
871239 517039 525
265998 126010 443
580771 45431 470
882077 268687 525
406928 124855 443
805376 686919 504
21927 672280 509
564500 351759 470
502362 795635 509
220831 406341 443
528951 240273 470
210426 369360 443
922728 760897 525
716334 481367 509
990118 543890 525
207170 538805 470
224085 39346 386
806896 858799 525
162374 928037 525
554041 922779 525
687669 377672 509
139099 149178 375
892883 822533 525
786404 665642 504
258630 258733 195
401710 485378 449
737442 166688 509
712190 540642 509
271556 841590 525
719555 410044 509
316280 868356 525
623223 79215 470
526474 316594 470
565970 375 470
360864 531072 470
53684 721905 509
607671 281667 470
460263 283704 449
632047 339659 509
955464 215568 525
831938 356077 509
537633 861661 525
638829 10618 509
123019 222343 386
800479 848503 525
280254 643844 509
803455 892698 525
697624 791511 504
256424 38336 443
471325 110558 449
750107 477028 509
798676 862516 525
359726 112996 443
593462 909214 525
694451 429764 509
96414 36302 351
161101 527615 470
327737 987951 525
298881 736146 509
505367 258865 449
130056 802931 509
213564 568122 470
185959 549378 470
792390 883022 525
827234 506769 509
694260 832778 504
791944 867341 525
184863 655027 509
789934 335380 509
778300 669583 504
197873 435710 449
604666 652094 509
330576 896242 525
566714 378367 470
655398 949967 525
355563 86551 443
163557 414479 449
871074 782421 525
196716 809546 509
797885 896042 525
232059 189291 443
581221 884613 525
373867 508372 449
556537 195315 470
53289 517851 470
259735 395440 441
120360 302699 443
306923 504790 449
149827 754963 509
761336 613554 509
823291 463704 509
909501 272861 525
314936 37562 443
74640 87637 351
812695 290324 509
320198 623259 470
370104 61388 443
157409 246953 443
750593 282652 509
985907 340538 525
471159 981359 525
688535 988238 525
441095 199858 449
654118 19672 509
179488 43844 383
733588 709968 411
48952 900799 525
621454 689172 509
250363 898239 525
25688 657985 509
726988 146006 509
399076 507611 449
443872 941850 525
22403 436102 449
895909 825099 525
840717 63594 525
701782 983026 525
556155 405588 470
681260 673766 385
982002 736742 525
884913 918312 476
685622 393190 509
740869 734416 424
299492 297511 371
313653 243971 407
489955 760168 509
682638 93095 509
675271 114159 509
478543 961606 525
633097 151169 509
696250 45843 509
684736 155143 509
154652 779353 509
366893 966072 525
733470 938093 525
731375 719914 411
147880 481353 449
503650 915966 525
767558 409192 509
843022 842167 388
789712 423198 509
255673 154988 443
354377 996582 525
819421 510103 509
623488 281899 470
484865 637696 509
748816 950868 525
689756 738661 504
238867 20473 443
645311 3180 509
191941 403202 443
57023 651390 509
858897 640729 525
203570 371543 443
377602 338309 441
942138 221305 525
726326 273450 509
500985 465407 426
25107 315455 443
301888 754795 509
940449 233150 525
298034 889729 525
706369 948232 525
853961 573327 525
502731 149489 449
641258 815067 504
262847 756677 509
10938 364074 443
697616 228403 509
212211 282817 443
610838 313647 470
691316 745462 504
342446 616452 470
871022 5175 525
112858 462490 449
34628 94595 351
352300 856115 525
618570 929693 525
535475 478342 470
867240 21923 525
511883 708387 509
634259 804724 504
730338 881084 525
204012 633679 509
828398 686606 504
12257 29449 308
571410 68951 470
545744 263585 470
975795 405497 525
542628 536081 408
564655 844953 525
929557 402226 525
617630 30484 470
690 967501 525
150705 68851 375
162116 18141 383
5737 997317 525
959972 681816 525
474469 449913 444
352381 323748 441
204727 959744 525
750285 396539 509
687688 917360 525
19760 12813 279
214825 370353 443
358839 22380 443
387405 680079 509
719012 716637 349
962143 950312 414
424559 37755 449
809933 222990 509
689508 185691 509
342490 274015 389
419327 180669 449
51129 761967 509
666106 376920 509
183857 247334 443
344791 95757 443
588930 823740 509
397931 680510 509
282157 330558 389
310540 356181 441
415903 684362 509
106840 666609 509
999772 903725 507
51254 41503 314
34666 393598 443
766975 468983 509
261910 727370 509
831343 818672 450
190097 760291 509
863690 768631 525
880180 315711 525
427497 432198 374
642076 88820 509
522536 453466 470
986143 836062 525
235397 936716 525
